{
	"loadPlaces": [
			{
				"id": 1,
				"image": "public/images/mr-cat.jpg",
				"title": "Mr. Cat",
				"city": "Астана"
			},
			{
				"id": 2,
				"image": "public/images/cheluskintsev.jpg",
				"title": "Челюскинцев",
				"city": "Воронеж"
			},
			{
				"id": 3,
				"image": "public/images/klub-poleznogo-deystviya.jpg",
				"title": "Клуб полезного действия",
				"city": "Санкт-Петербург"
			},
			{
				"id": 4,
				"image": "public/images/freelance-cafe.jpg",
				"title": "Freelance Café",
				"city": "Екатеринбург"
			},
			{
				"id": 5,
				"image": "public/images/labaratoriya-kasperskogo.jpg",
				"title": "Лаборатория Касперского",
				"city": "Новосибирск"
			},
			{
				"id": 6,
				"image": "public/images/it-office.jpg",
				"title": "IT-office ",
				"city": "Кемерово"
			}
		]
}
